{
  "version": "1.0.0-*",

  "dependencies": {
    "Microsoft.AspNetCore.Identity.MongoDB": "1.0.2",
    "NETStandard.Library": "1.6.0"
  },

  "frameworks": {
    "netstandard1.6": {
      "imports": "dnxcore50"
    }
  }
}
